{
     "count":964,
     "next":"https://pokeapi.co/api/v2/pokemon?offset=20&limit=20",
     "previous":null,
     "results":
     [{"name":"bulbasaur","type":"grass", "number": 1, "sprite": "https://raw.githubusercontent.com/PokeAPI/sprites/master/sprites/pokemon/1.png"},
          {"name":"ivysaur","type":"grass", "number": 2, "sprite": "https://raw.githubusercontent.com/PokeAPI/sprites/master/sprites/pokemon/2.png"},
          {"name":"venusaur","type":"grass", "number": 3, "sprite": "https://raw.githubusercontent.com/PokeAPI/sprites/master/sprites/pokemon/3.png"},
          {"name":"charmander","type":"fire", "number": 4, "sprite": "https://raw.githubusercontent.com/PokeAPI/sprites/master/sprites/pokemon/4.png"},
          {"name":"charmeleon","type":"fire", "number": 5, "sprite": "https://raw.githubusercontent.com/PokeAPI/sprites/master/sprites/pokemon/5.png"},
          {"name":"charizard","type":"fire", "number": 6, "sprite": "https://raw.githubusercontent.com/PokeAPI/sprites/master/sprites/pokemon/6.png"},
          {"name":"squirtle","type":"water", "number": 7, "sprite": "https://raw.githubusercontent.com/PokeAPI/sprites/master/sprites/pokemon/7.png"},
          {"name":"wartortle","type":"water", "number": 8, "sprite": "https://raw.githubusercontent.com/PokeAPI/sprites/master/sprites/pokemon/8.png"},
          {"name":"blastoise","type":"water", "number": 9, "sprite": "https://raw.githubusercontent.com/PokeAPI/sprites/master/sprites/pokemon/9.png"},
          {"name":"caterpie","type":"bug", "number": 10, "sprite": "https://raw.githubusercontent.com/PokeAPI/sprites/master/sprites/pokemon/10.png"},
          {"name":"metapod","type":"bug", "number": 11, "sprite": "https://raw.githubusercontent.com/PokeAPI/sprites/master/sprites/pokemon/11.png"},
          {"name":"butterfree","type":"bug", "number": 12, "sprite": "https://raw.githubusercontent.com/PokeAPI/sprites/master/sprites/pokemon/12.png"},
          {"name":"weedle","type":"bug", "number": 13, "sprite": "https://raw.githubusercontent.com/PokeAPI/sprites/master/sprites/pokemon/13.png"},
          {"name":"kakuna","type":"bug", "number": 14, "sprite": "https://raw.githubusercontent.com/PokeAPI/sprites/master/sprites/pokemon/14.png"},
          {"name":"beedrill","type":"bug", "number": 15, "sprite": "https://raw.githubusercontent.com/PokeAPI/sprites/master/sprites/pokemon/15.png"},
          {"name":"pidgey","type":"flying", "number": 16, "sprite": "https://raw.githubusercontent.com/PokeAPI/sprites/master/sprites/pokemon/16.png"},
          {"name":"pidgeotto","type":"flying", "number": 17, "sprite": "https://raw.githubusercontent.com/PokeAPI/sprites/master/sprites/pokemon/17.png"},
          {"name":"pidgeot","type":"flying", "number": 18, "sprite": "https://raw.githubusercontent.com/PokeAPI/sprites/master/sprites/pokemon/18.png"},
          {"name":"rattata","type":"normal", "number": 19, "sprite": "https://raw.githubusercontent.com/PokeAPI/sprites/master/sprites/pokemon/19.png"},
          {"name":"raticate","type":"normal", "number": 20, "sprite": "https://raw.githubusercontent.com/PokeAPI/sprites/master/sprites/pokemon/20.png"}]
     }
